<?xml version="1.0"?>
<robot xmlns:xacro="http://www.ros.org/wiki/xacro" name="lidar">
    <xacro:macro name="lidar" params="name inertial_xyz joint_xyz">
        <link name="${name}_link">
            <xacro:cylinder_inertia m="0.1" r="0.035" h="0.05"/>
            <visual>
                <origin xyz="0 0 -0.0555" rpy="0 0 0" />
                <geometry>
                    <mesh filename="package://agv_description/meshes/lidar.STL"/>
                </geometry>
                <material name="">
                    <color rgba="0.7 0.6 0 1" />
                </material>
            </visual>
            <collision>
                <origin xyz="0 0 0" rpy="0 0 0" />
                <geometry>
                    <mesh filename="package://agv_description/meshes/lidar.STL"/>
                </geometry>
            </collision>
        </link>
        <joint name="${name}_joint" type="fixed">
            <origin xyz="${joint_xyz}" rpy="0 0 0" />
            <parent link="base_link" />
            <child link="${name}_link" />
            <axis xyz="0 0 0" />
        </joint>
    </xacro:macro>

</robot>
