<?xml version="1.0"?>
<robot xmlns:xacro="http://www.ros.org/wiki/xacro" name="wheel">
    <xacro:macro name="wheel" params="name inertial_xyz visual_rpy joint_xyz joint_rpy">
        <link name="${name}_wheel">
            <xacro:cylinder_inertia m="${wheel_mass}" r="${wheel_radius}" h="${wheel_width}"/>
            <visual>
                <origin xyz="0 0 0" rpy="${visual_rpy}" />
                <geometry>
                    <mesh filename="package://agv_description/meshes/wheel.STL"/>
                </geometry>
                <material name="">
                    <color rgba="0 0 0 1" />
                </material>
            </visual>
            <collision>
                <origin xyz="0 0 0" rpy="0 0 0" />
                <geometry>
                    <mesh filename="package://agv_description/meshes/wheel.STL"/>
                </geometry>
            </collision>
        </link>

        <joint name="${name}_joint" type="continuous">
            <origin xyz="${joint_xyz}" rpy="${joint_rpy}" />
            <parent link="base_link" />
            <child link="${name}_wheel" />
            <axis xyz="0 0 1" />
        </joint>
    </xacro:macro>
</robot>
